{
  "id": "Death 03:51:33 05-13-2021_-250,5,-506",
  "name": "Death 03:51:33 05-13-2021",
  "icon": "waypoint-death.png",
  "x": -250,
  "y": 5,
  "z": -506,
  "r": 162,
  "g": 165,
  "b": 78,
  "enable": true,
  "type": "Death",
  "origin": "journeymap",
  "dimensions": [
    0
  ],
  "persistent": true
}